<?xml version="1.0" encoding="utf-8"?>
<!-- Generator: Adobe Illustrator 16.0.4, SVG Export Plug-In . SVG Version: 6.00 Build 0)  -->
<!DOCTYPE svg PUBLIC "-//W3C//DTD SVG 1.1//EN" "http://www.w3.org/Graphics/SVG/1.1/DTD/svg11.dtd">
<svg version="1.1" id="Layer_1" xmlns="http://www.w3.org/2000/svg" xmlns:xlink="http://www.w3.org/1999/xlink" x="0px" y="0px"
	 width="50px" height="50px" viewBox="0 0 50 50" enable-background="new 0 0 50 50" xml:space="preserve">
<circle opacity="0.25" fill="#FFFFFF" enable-background="new    " cx="25" cy="25" r="19.784"/>
<g>
	<path fill="#2A4494" d="M30.174,22.342c-0.023,0.052-0.043,0.102-0.061,0.152C30.131,22.444,30.15,22.394,30.174,22.342
		c1.064-2.381,0.293-3.98-1.498-5.494C30.467,18.363,31.238,19.961,30.174,22.342z"/>
	<path opacity="0.25" fill="#FFFFFF" enable-background="new    " d="M30.174,22.342c-0.023,0.052-0.043,0.102-0.061,0.152
		C30.131,22.444,30.15,22.394,30.174,22.342c1.064-2.381,0.293-3.98-1.498-5.494C30.467,18.363,31.238,19.961,30.174,22.342z"/>
	<path fill="#2A4494" d="M24.868,28.962c0.074-0.076,0.125-0.166,0.139-0.264c0.143-1.027,0.58-1.874,1.232-2.605
		c-0.654,0.731-1.091,1.578-1.234,2.607C24.991,28.798,24.942,28.886,24.868,28.962z"/>
	<path opacity="0.25" fill="#FFFFFF" enable-background="new    " d="M24.868,28.962c0.074-0.076,0.125-0.166,0.139-0.264
		c0.143-1.027,0.58-1.874,1.232-2.605c-0.654,0.731-1.091,1.578-1.234,2.607C24.991,28.798,24.942,28.886,24.868,28.962z"/>
	<path fill="#2A4494" d="M27.701,22.537c-0.127,0.412-0.318,0.81-0.578,1.175c-0.428,0.598-0.904,1.16-1.385,1.717
		c0.48-0.557,0.957-1.119,1.385-1.715C27.383,23.346,27.574,22.949,27.701,22.537z"/>
	<path opacity="0.25" fill="#FFFFFF" enable-background="new    " d="M27.701,22.537c-0.127,0.412-0.318,0.81-0.578,1.175
		c-0.428,0.598-0.904,1.16-1.385,1.717c0.48-0.557,0.957-1.119,1.385-1.715C27.383,23.346,27.574,22.949,27.701,22.537z"/>
	<path fill="#2A4494" d="M26.34,15.417c0.82,0.406,1.629,0.837,2.336,1.431C27.971,16.254,27.16,15.824,26.34,15.417z"/>
	<path opacity="0.25" fill="#FFFFFF" enable-background="new    " d="M26.34,15.417c0.82,0.406,1.629,0.837,2.336,1.431
		C27.971,16.254,27.16,15.824,26.34,15.417z"/>
	<path fill="#2A4494" d="M22.509,21.497c0.463,0.238,0.876,0.571,0.8,1.133c-0.019,0.143-0.061,0.267-0.122,0.374
		c0.062-0.107,0.104-0.231,0.124-0.375c0.076-0.562-0.337-0.895-0.8-1.132c-0.498-0.254-0.825-0.65-1.015-1.168
		c-0.042-0.657,0.119-1.218,0.511-1.669c-0.393,0.451-0.556,1.013-0.514,1.67C21.684,20.846,22.011,21.243,22.509,21.497z"/>
	<path opacity="0.25" fill="#FFFFFF" enable-background="new    " d="M22.509,21.497c0.463,0.238,0.876,0.571,0.8,1.133
		c-0.019,0.143-0.061,0.267-0.122,0.374c0.062-0.107,0.104-0.231,0.124-0.375c0.076-0.562-0.337-0.895-0.8-1.132
		c-0.498-0.254-0.825-0.65-1.015-1.168c-0.042-0.657,0.119-1.218,0.511-1.669c-0.393,0.451-0.556,1.013-0.514,1.67
		C21.684,20.846,22.011,21.243,22.509,21.497z"/>
	<path fill="#2A4494" d="M25.984,15.3c0.119,0.011,0.236,0.077,0.355,0.117c1.457,0.102,2.641,0.792,3.689,1.743
		c0.332,0.301,0.613,0.63,0.834,0.999c-0.221-0.369-0.502-0.699-0.834-1c-1.049-0.951-2.232-1.642-3.689-1.743
		C26.221,15.375,26.104,15.311,25.984,15.3c-2.519-0.214-4.837,0.249-6.513,2.297c-0.649,0.796-0.948,1.659-0.951,2.491
		c0.003-0.832,0.302-1.694,0.951-2.49C21.147,15.551,23.465,15.087,25.984,15.3z"/>
	<path opacity="0.25" fill="#FFFFFF" enable-background="new    " d="M25.984,15.3c0.119,0.011,0.236,0.077,0.355,0.117
		c1.457,0.102,2.641,0.792,3.689,1.743c0.332,0.301,0.613,0.63,0.834,0.999c-0.221-0.369-0.502-0.699-0.834-1
		c-1.049-0.951-2.232-1.642-3.689-1.743C26.221,15.375,26.104,15.311,25.984,15.3c-2.519-0.214-4.837,0.249-6.513,2.297
		c-0.649,0.796-0.948,1.659-0.951,2.491c0.003-0.832,0.302-1.694,0.951-2.49C21.147,15.551,23.465,15.087,25.984,15.3z"/>
	<path fill="#2A4494" d="M21.699,21.523c-0.313-0.237-0.403-0.611-0.275-0.998C21.294,20.912,21.385,21.287,21.699,21.523
		c0.208,0.157,0.365,0.323,0.481,0.498C22.064,21.845,21.908,21.679,21.699,21.523z"/>
	<path opacity="0.25" fill="#FFFFFF" enable-background="new    " d="M21.699,21.523c-0.313-0.237-0.403-0.611-0.275-0.998
		C21.294,20.912,21.385,21.287,21.699,21.523c0.208,0.157,0.365,0.323,0.481,0.498C22.064,21.845,21.908,21.679,21.699,21.523z"/>
	<path fill="#2A4494" d="M24.232,31.042c0.099-0.017,0.197-0.037,0.295-0.035C24.429,31.005,24.331,31.025,24.232,31.042
		c-1.047,0.188-1.781,1.102-1.639,2.059c0.076,0.51,0.312,0.92,0.63,1.207c-0.317-0.287-0.554-0.697-0.629-1.207
		C22.451,32.142,23.186,31.229,24.232,31.042z"/>
	<path opacity="0.25" fill="#FFFFFF" enable-background="new    " d="M24.232,31.042c0.099-0.017,0.197-0.037,0.295-0.035
		C24.429,31.005,24.331,31.025,24.232,31.042c-1.047,0.188-1.781,1.102-1.639,2.059c0.076,0.51,0.312,0.92,0.63,1.207
		c-0.317-0.287-0.554-0.697-0.629-1.207C22.451,32.142,23.186,31.229,24.232,31.042z"/>
	<path fill="#2A4494" d="M30.021,22.733c-0.016,0.021-0.02,0.052-0.016,0.089c-0.131,0.149-0.277,0.282-0.418,0.42
		c0.141-0.139,0.289-0.271,0.42-0.422c0.029-0.036,0.062-0.073,0.096-0.109c-0.033,0.037-0.064,0.074-0.098,0.11
		C30.002,22.784,30.006,22.753,30.021,22.733z"/>
	<path opacity="0.25" fill="#FFFFFF" enable-background="new    " d="M30.021,22.733c-0.016,0.021-0.02,0.052-0.016,0.089
		c-0.131,0.149-0.277,0.282-0.418,0.42c0.141-0.139,0.289-0.271,0.42-0.422c0.029-0.036,0.062-0.073,0.096-0.109
		c-0.033,0.037-0.064,0.074-0.098,0.11C30.002,22.784,30.006,22.753,30.021,22.733z"/>
	<path fill="#0B0A10" d="M32.156,19.461c-0.039-0.58-0.352-1.076-0.518-1.619c-0.248-0.309-0.477-0.638-0.75-0.924
		c-2.652-2.767-7.37-3.273-10.554-1.14c-1.795,1.201-3.015,3.128-2.406,5.605c0.017,0.023,0.037,0.042,0.05,0.066
		c0.005,0.008-0.01,0.026-0.015,0.04c0.024,0.073,0.05,0.146,0.074,0.219c0.524,1.077,1.25,1.973,2.312,2.563
		c0.604,0.137,1.211,0.315,1.833,0.185c0.979-0.207,1.677-0.755,1.96-1.753c-0.079-0.333-0.157-0.665-0.234-0.998
		c-0.266-0.37-0.587-0.678-1-0.879c-0.807-0.406-0.867-1.296-0.13-1.854c1.488-1.125,4.046-0.07,4.304,1.771
		c0.146,1.055-0.111,1.996-0.797,2.815c-0.424,0.507-0.828,1.03-1.265,1.524c-1.058,1.192-1.771,2.545-1.947,4.146
		c-0.021,0.206-0.288,0.546,0.159,0.671c0.679,0,1.359-0.003,2.036,0.001c0.229,0.002,0.396-0.032,0.398-0.319
		c0.023-1.824,1.018-3.07,2.414-4.103c0.854-0.632,1.709-1.272,2.455-2.038c0.908-0.928,1.576-1.975,1.695-3.307
		c-0.008-0.141-0.014-0.28-0.02-0.421C32.094,19.653,32.109,19.561,32.156,19.461z M31.111,21.368
		c-0.109,0.23-0.25,0.453-0.41,0.666c-0.078,0.106-0.166,0.211-0.256,0.313c-0.004,0.005-0.006,0.01-0.01,0.014
		c-0.072,0.082-0.152,0.162-0.229,0.242c-0.035,0.034-0.066,0.07-0.102,0.105l-0.004,0.003l0,0l0,0
		c-0.031,0.037-0.064,0.074-0.096,0.109c-0.131,0.15-0.277,0.283-0.42,0.422c-0.83,0.814-1.811,1.455-2.691,2.208
		c-0.238,0.204-0.455,0.419-0.656,0.642c-0.652,0.732-1.089,1.58-1.232,2.606c-0.014,0.099-0.064,0.188-0.139,0.265
		c-0.219,0.229-0.641,0.338-0.876,0.164c-0.167-0.125-0.072-0.299-0.039-0.457c0.19-0.885,0.58-1.664,1.093-2.379
		c0.025-0.035,0.057-0.068,0.083-0.104c0.147-0.2,0.3-0.397,0.465-0.589c0.049-0.057,0.096-0.113,0.145-0.17
		c0.48-0.557,0.957-1.119,1.385-1.716c0.26-0.365,0.451-0.763,0.578-1.175c0.381-1.236,0.168-2.595-0.564-3.561
		c-1.004-1.325-3.657-1.419-4.662-0.729c-0.182,0.125-0.338,0.263-0.469,0.413c-0.392,0.451-0.555,1.013-0.512,1.669
		c0.19,0.518,0.518,0.914,1.016,1.168c0.463,0.238,0.876,0.571,0.8,1.132c-0.019,0.144-0.062,0.268-0.124,0.375
		c-0.184,0.324-0.539,0.503-0.944,0.593c-0.523,0.211-1.042,0.161-1.526-0.095c-1.385-0.73-2.201-2.025-2.196-3.413
		c0.003-0.832,0.302-1.695,0.951-2.491c1.676-2.048,3.994-2.511,6.512-2.298c0.121,0.012,0.236,0.077,0.355,0.117
		c1.459,0.102,2.643,0.792,3.691,1.743c0.332,0.301,0.611,0.631,0.834,1s0.385,0.776,0.479,1.23
		C31.496,20.144,31.391,20.789,31.111,21.368z"/>
	<path fill="#0B0A10" d="M25.803,30.577c-0.168-0.08-0.336-0.16-0.503-0.24c-0.706-0.125-1.393-0.076-2.051,0.223
		c-1.307,0.824-1.721,1.982-1.229,3.438c0.023,0.035,0.045,0.07,0.069,0.107c0.053,0.109,0.104,0.215,0.157,0.324
		c0.403,0.381,0.724,0.869,1.302,1.031c0.927,0.152,1.817,0.139,2.606-0.49c0.508-0.406,0.707-0.996,0.994-1.537
		c0.09-0.754-0.16-1.434-0.498-2.088C26.365,31.089,26.086,30.833,25.803,30.577z M24.911,34.657
		c0.01,0.102-0.062,0.082-0.125,0.082c-0.232,0.057-0.476,0.057-0.711,0.006c-0.176-0.037-0.349-0.102-0.51-0.191
		c-0.121-0.068-0.235-0.15-0.342-0.246c-0.318-0.287-0.554-0.697-0.63-1.207c-0.143-0.959,0.592-1.871,1.639-2.059
		c0.099-0.017,0.198-0.037,0.296-0.035c0.1,0.002,0.196,0.022,0.289,0.088c0.806,0.142,1.376,0.734,1.5,1.508
		c0.018,0.111,0.025,0.227,0.023,0.342C26.328,33.837,25.74,34.54,24.911,34.657z"/>
	<path fill="#2A4494" d="M30.021,22.733c0.014-0.021,0.041-0.028,0.082-0.027c-0.018-0.065-0.014-0.126,0.002-0.185
		c0.002-0.009,0.006-0.018,0.01-0.025c0.016-0.051,0.035-0.102,0.059-0.152c1.064-2.381,0.293-3.979-1.498-5.494
		c-0.705-0.594-1.514-1.024-2.336-1.431c-0.119-0.04-0.234-0.106-0.355-0.117c-2.517-0.213-4.836,0.251-6.512,2.298
		c-0.649,0.795-0.948,1.658-0.951,2.49c-0.005,1.387,0.812,2.683,2.196,3.413c0.485,0.256,1.003,0.306,1.526,0.095v-0.001
		c0.127-0.31,0.188-0.598,0.177-0.866c-0.012-0.252-0.091-0.487-0.239-0.708c-0.116-0.175-0.272-0.34-0.481-0.497
		c-0.313-0.237-0.404-0.612-0.275-0.999c0.021-0.065,0.036-0.13,0.071-0.196c-0.043-0.657,0.12-1.219,0.513-1.67
		c0.13-0.15,0.287-0.288,0.469-0.413c1.005-0.688,3.658-0.595,4.662,0.729c0.734,0.966,0.945,2.324,0.566,3.561
		c-0.129,0.412-0.32,0.811-0.58,1.176c-0.428,0.598-0.904,1.159-1.385,1.714c-0.049,0.057-0.096,0.113-0.145,0.17
		c-0.166,0.191-0.318,0.389-0.465,0.589c-0.026,0.036-0.058,0.069-0.083,0.104c-0.514,0.717-0.902,1.494-1.092,2.379
		c-0.034,0.157-0.129,0.332,0.038,0.457c0.235,0.174,0.657,0.065,0.877-0.164c0.073-0.076,0.122-0.166,0.137-0.263
		c0.144-1.028,0.581-1.875,1.235-2.608c0.199-0.224,0.416-0.438,0.656-0.642c0.881-0.753,1.859-1.394,2.691-2.208
		c0.141-0.138,0.287-0.271,0.418-0.42C30.002,22.785,30.006,22.753,30.021,22.733z"/>
	<path fill="#A7A6D2" d="M30.863,18.159c-0.221-0.368-0.502-0.698-0.834-0.999c-1.049-0.951-2.232-1.642-3.689-1.743
		c0.82,0.406,1.631,0.837,2.336,1.431c1.791,1.514,2.562,3.113,1.498,5.494c-0.021,0.05-0.043,0.102-0.061,0.152
		c-0.002,0.009-0.008,0.017-0.01,0.025c-0.016,0.059-0.018,0.119-0.002,0.185c-0.039-0.001-0.066,0.007-0.082,0.027
		c-0.014,0.021-0.018,0.051-0.014,0.088c0.029-0.036,0.062-0.074,0.096-0.11l0,0l0,0l0.004-0.003
		c0.035-0.035,0.066-0.071,0.102-0.106c0.076-0.079,0.156-0.159,0.229-0.241c0.004-0.004,0.006-0.01,0.01-0.014
		c0.09-0.103,0.178-0.208,0.256-0.313c0.16-0.213,0.301-0.435,0.41-0.666c0.277-0.579,0.385-1.225,0.23-1.978
		C31.25,18.935,31.088,18.528,30.863,18.159z"/>
	<path fill="none" d="M31.111,21.368c-0.109,0.23-0.25,0.453-0.41,0.666"/>
	<path fill="#A7A6D2" d="M22.509,21.497c-0.498-0.254-0.825-0.65-1.016-1.168c-0.034,0.065-0.049,0.13-0.07,0.196
		c-0.128,0.386-0.038,0.761,0.275,0.998c0.208,0.157,0.365,0.323,0.481,0.498c0.146,0.221,0.228,0.456,0.239,0.708
		c0.012,0.269-0.051,0.557-0.177,0.866v0.001c0.406-0.09,0.762-0.269,0.944-0.593c0.062-0.107,0.104-0.23,0.122-0.374
		C23.385,22.068,22.972,21.735,22.509,21.497z"/>
	<path fill="#2A4494" d="M24.932,34.501c0.82-1.166,0.601-2.295-0.117-3.406l0,0c-0.092-0.065-0.188-0.086-0.288-0.088
		c-0.098,0-0.197,0.019-0.295,0.035c-1.046,0.188-1.781,1.102-1.638,2.059c0.075,0.51,0.312,0.92,0.629,1.207
		c0.106,0.096,0.221,0.178,0.342,0.246c0.162,0.09,0.334,0.154,0.51,0.191c0.235,0.051,0.479,0.051,0.711-0.006
		c0.041-0.027,0.08-0.055,0.121-0.084C24.916,34.603,24.905,34.54,24.932,34.501z"/>
	<path fill="#A7A6D2" d="M24.815,31.095L24.815,31.095c0.718,1.111,0.937,2.24,0.117,3.406c-0.027,0.039-0.018,0.102-0.025,0.154
		c-0.041,0.029-0.08,0.057-0.121,0.084c0.062,0,0.135,0.02,0.125-0.082c0.83-0.117,1.417-0.82,1.429-1.713
		c0-0.117-0.008-0.23-0.025-0.342C26.193,31.829,25.621,31.236,24.815,31.095z"/>
</g>
</svg>
